date,room_id,presentation_id
2018-08-12 12:00:00,3,1
2018-06-20 11:30:00,1,2
2018-07-18 15:00:00,5,3
2018-07-02 13:00:00,4,5
2018-06-22 15:45:00,2,1
2018-06-18 18:00:00,1,2
2018-06-18 17:00:00,1,3
2018-06-18 16:00:00,1,5
2018-07-04 14:20:00,1,3
2018-07-15 13:00:00,2,4